name,vit,dex,lck,image,won,undead
you,12,6,9,,,0
スライム,6,4,0,slime,map,0
ゾンビ,10,4,0,zombie,map,1
スケルトン,8,6,0,scelton,sword,1
幽霊,7,6,0,ghost,map,1
グール,6,6,0,ghoul,ghoul,0
バブリースライム,6,5,0,bublyslime,map,0
ジャックランタン,10,4,0,jack,pumpkin,1
ミミック,3,15,0,mimic,map,0
人魂,5,5,0,greenwisp,chest_emkey,1
鬼火,6,6,0,redwisp,chest_rbkey,1
ウィルオウィスプ,7,7,0,bluewisp,chest_spkey,1
アイアンゴーレム,20,7,0,irongorem,chest_armor,0
ミイラ,15,7,0,mummy,map,1
吸血鬼,12,8,0,vampire,map,1
